Nivel_2-Escalonador/simulacao_nivel_2.vcd
$date
  Mon Dec  8 13:07:39 2025
$end
$version
  GHDL v0
$end
$timescale
  1 fs
$end
$scope module standard $end
$upscope $end
$scope module std_logic_1164 $end
$upscope $end
$scope module numeric_std $end
$upscope $end
$scope module tb_nivel_2 $end
$var reg 1 ! s_clk $end
$var reg 1 " s_reset $end
$var reg 32 # s_call_up[31:0] $end
$var reg 32 $ s_call_down[31:0] $end
$var reg 5 % s_floor_sensor_1[4:0] $end
$var reg 5 & s_floor_sensor_2[4:0] $end
$var reg 5 ' s_floor_sensor_3[4:0] $end
$var reg 2 ( s_moving_1[1:0] $end
$var reg 2 ) s_moving_2[1:0] $end
$var reg 2 * s_moving_3[1:0] $end
$var reg 5 + s_solicit_floor_1[4:0] $end
$var reg 5 , s_solicit_floor_2[4:0] $end
$var reg 5 - s_solicit_floor_3[4:0] $end
$var reg 1 . s_solicit_dir $end
$var reg 1 / s_solicit_enable $end
$var reg 1 0 sim_finished $end
$scope module uut $end
$var reg 1 1 clk $end
$var reg 1 2 reset $end
$var reg 32 3 call_up[31:0] $end
$var reg 32 4 call_down[31:0] $end
$var reg 5 5 floor_sensor_1[4:0] $end
$var reg 5 6 floor_sensor_2[4:0] $end
$var reg 5 7 floor_sensor_3[4:0] $end
$var reg 2 8 moving_1[1:0] $end
$var reg 2 9 moving_2[1:0] $end
$var reg 2 : moving_3[1:0] $end
$var reg 5 ; solicit_floor_1[4:0] $end
$var reg 5 < solicit_floor_2[4:0] $end
$var reg 5 = solicit_floor_3[4:0] $end
$var reg 1 > solicit_dir $end
$var reg 1 ? solicit_enable $end
$var reg 1 @ s_ld_call $end
$var reg 1 A s_enable_dispatch $end
$var reg 1 B s_clear_call $end
$var reg 1 C s_call_detected $end
$var reg 1 D clear_command $end
$var reg 32 E clear_floor_up[31:0] $end
$var reg 32 F clear_floor_down[31:0] $end
$var reg 32 G r_call_up[31:0] $end
$var reg 32 H r_call_down[31:0] $end
$scope module pc_block $end
$var reg 1 I clk $end
$var reg 1 J reset $end
$var reg 1 K call_detected $end
$var reg 1 L ld_call $end
$var reg 1 M enable_dispatch $end
$var reg 1 N clear_call $end
$var reg 2 O status[1:0] $end
$upscope $end
$scope module po_block $end
$var reg 1 P clk $end
$var reg 1 Q reset $end
$var reg 32 R r_call_up[31:0] $end
$var reg 32 S r_call_down[31:0] $end
$var reg 5 T floor_sensor_1[4:0] $end
$var reg 5 U floor_sensor_2[4:0] $end
$var reg 5 V floor_sensor_3[4:0] $end
$var reg 2 W moving_1[1:0] $end
$var reg 2 X moving_2[1:0] $end
$var reg 2 Y moving_3[1:0] $end
$var reg 1 Z ld_call $end
$var reg 1 [ enable_dispatch $end
$var reg 1 \ clear_call $end
$var reg 5 ] solicit_floor_1[4:0] $end
$var reg 5 ^ solicit_floor_2[4:0] $end
$var reg 5 _ solicit_floor_3[4:0] $end
$var reg 1 ` solicit_dir $end
$var reg 1 a solicit_enable $end
$var reg 1 b clear_command $end
$var reg 32 c clear_floor_up[31:0] $end
$var reg 32 d clear_floor_down[31:0] $end
$var reg 1 e call_detected $end
$var reg 5 f next_floor[4:0] $end
$var reg 1 g next_dir $end
$var reg 5 h r_next_floor[4:0] $end
$var reg 1 i r_next_dir $end
$var reg 5 j distancia_1[4:0] $end
$var reg 5 k distancia_2[4:0] $end
$var reg 5 l distancia_3[4:0] $end
$var reg 2 m elevator_cost_1[1:0] $end
$var reg 2 n elevator_cost_2[1:0] $end
$var reg 2 o elevator_cost_3[1:0] $end
$var reg 2 p elevador_vencedor_out[1:0] $end
$scope module sweeper_block $end
$var reg 32 q r_call_up[31:0] $end
$var reg 32 r r_call_down[31:0] $end
$var reg 5 s next_floor[4:0] $end
$var reg 1 t next_dir $end
$var reg 1 u call_detected $end
$upscope $end
$scope module target_reg_block $end
$var reg 1 v clk $end
$var reg 1 w reset $end
$var reg 1 x ld_call $end
$var reg 5 y next_floor[4:0] $end
$var reg 1 z next_dir $end
$var reg 5 { r_next_floor[4:0] $end
$var reg 1 | r_next_dir $end
$upscope $end
$scope module dist_calc_1 $end
$var reg 5 } chamada_ativa[4:0] $end
$var reg 5 !" floor_sensor[4:0] $end
$var reg 5 "" distancia[4:0] $end
$upscope $end
$scope module dist_calc_2 $end
$var reg 5 #" chamada_ativa[4:0] $end
$var reg 5 $" floor_sensor[4:0] $end
$var reg 5 %" distancia[4:0] $end
$upscope $end
$scope module dist_calc_3 $end
$var reg 5 &" chamada_ativa[4:0] $end
$var reg 5 '" floor_sensor[4:0] $end
$var reg 5 (" distancia[4:0] $end
$upscope $end
$scope module cost_calc_1 $end
$var reg 5 )" call_floor[4:0] $end
$var reg 1 *" direction $end
$var reg 5 +" floor_sensor[4:0] $end
$var reg 2 ," moving[1:0] $end
$var reg 2 -" elevator_cost[1:0] $end
$upscope $end
$scope module cost_calc_2 $end
$var reg 5 ." call_floor[4:0] $end
$var reg 1 /" direction $end
$var reg 5 0" floor_sensor[4:0] $end
$var reg 2 1" moving[1:0] $end
$var reg 2 2" elevator_cost[1:0] $end
$upscope $end
$scope module cost_calc_3 $end
$var reg 5 3" call_floor[4:0] $end
$var reg 1 4" direction $end
$var reg 5 5" floor_sensor[4:0] $end
$var reg 2 6" moving[1:0] $end
$var reg 2 7" elevator_cost[1:0] $end
$upscope $end
$scope module comparador_custo_block $end
$var reg 5 8" distancia_0_in[4:0] $end
$var reg 5 9" distancia_1_in[4:0] $end
$var reg 5 :" distancia_2_in[4:0] $end
$var reg 2 ;" custo_elev_0_in[1:0] $end
$var reg 2 <" custo_elev_1_in[1:0] $end
$var reg 2 =" custo_elev_2_in[1:0] $end
$var reg 2 >" elevador_vencedor_out[1:0] $end
$upscope $end
$scope module out_gen_block $end
$var reg 1 ?" clk $end
$var reg 1 @" reset $end
$var reg 5 A" r_next_floor[4:0] $end
$var reg 1 B" direction $end
$var reg 2 C" winner_elev[1:0] $end
$var reg 1 D" enable_dispatch $end
$var reg 5 E" solicit_floor_um[4:0] $end
$var reg 5 F" solicit_floor_dois[4:0] $end
$var reg 5 G" solicit_floor_tres[4:0] $end
$var reg 1 H" solicit_direction $end
$var reg 1 I" solicit_enable $end
$upscope $end
$scope module clear_dec_block $end
$var reg 5 J" r_next_floor[4:0] $end
$var reg 1 K" r_next_dir $end
$var reg 1 L" clear_call $end
$var reg 1 M" clear_command $end
$var reg 32 N" clear_floor_up[31:0] $end
$var reg 32 O" clear_floor_down[31:0] $end
$upscope $end
$upscope $end
$scope module ext_call_reg $end
$var reg 1 P" clk $end
$var reg 1 Q" reset $end
$var reg 32 R" call_up[31:0] $end
$var reg 32 S" call_down[31:0] $end
$var reg 1 T" clear_command $end
$var reg 32 U" clear_floor_up[31:0] $end
$var reg 32 V" clear_floor_down[31:0] $end
$var reg 32 W" r_call_up[31:0] $end
$var reg 32 X" r_call_down[31:0] $end
$var reg 32 Y" s_reg_up[31:0] $end
$var reg 32 Z" s_reg_down[31:0] $end
$upscope $end
$upscope $end
$upscope $end
$enddefinitions $end
#0
1!
0"
b00000000000000000000000000000000 #
b00000000000000000000000000000000 $
b00000 %
b00000 &
b00000 '
b00 (
b00 )
b00 *
b00000 +
b00000 ,
b00000 -
0.
0/
00
11
02
b00000000000000000000000000000000 3
b00000000000000000000000000000000 4
b00000 5
b00000 6
b00000 7
b00 8
b00 9
b00 :
b00000 ;
b00000 <
b00000 =
0>
0?
0@
0A
0B
0C
0D
b00000000000000000000000000000000 E
b00000000000000000000000000000000 F
b00000000000000000000000000000000 G
b00000000000000000000000000000000 H
1I
0J
0K
0L
0M
0N
b00 O
1P
0Q
b00000000000000000000000000000000 R
b00000000000000000000000000000000 S
b00000 T
b00000 U
b00000 V
b00 W
b00 X
b00 Y
0Z
0[
0\
b00000 ]
b00000 ^
b00000 _
0`
0a
0b
b00000000000000000000000000000000 c
b00000000000000000000000000000000 d
0e
b00000 f
0g
b00000 h
0i
b00000 j
b00000 k
b00000 l
b01 m
b01 n
b01 o
b00 p
b00000000000000000000000000000000 q
b00000000000000000000000000000000 r
b00000 s
0t
0u
1v
0w
0x
b00000 y
0z
b00000 {
0|
b00000 }
b00000 !"
b00000 ""
b00000 #"
b00000 $"
b00000 %"
b00000 &"
b00000 '"
b00000 ("
b00000 )"
0*"
b00000 +"
b00 ,"
b01 -"
b00000 ."
0/"
b00000 0"
b00 1"
b01 2"
b00000 3"
04"
b00000 5"
b00 6"
b01 7"
b00000 8"
b00000 9"
b00000 :"
b01 ;"
b01 <"
b01 ="
b00 >"
1?"
0@"
b00000 A"
0B"
b00 C"
0D"
b00000 E"
b00000 F"
b00000 G"
0H"
0I"
b00000 J"
0K"
0L"
0M"
b00000000000000000000000000000000 N"
b00000000000000000000000000000000 O"
1P"
0Q"
b00000000000000000000000000000000 R"
b00000000000000000000000000000000 S"
0T"
b00000000000000000000000000000000 U"
b00000000000000000000000000000000 V"
b00000000000000000000000000000000 W"
b00000000000000000000000000000000 X"
b00000000000000000000000000000000 Y"
b00000000000000000000000000000000 Z"
#500000
0!
01
0I
0P
0v
0?"
0P"
#1000000
1!
11
1I
1P
1v
1?"
1P"
#1500000
0!
01
0I
0P
0v
0?"
0P"
#2000000
1!
b00000000000000000000010000000000 #
b00111 '
11
b00000000000000000000010000000000 3
b00111 7
1C
b00000000000000000000010000000000 G
1I
1K
1P
b00000000000000000000010000000000 R
b00111 V
1e
b01010 f
1g
b00000000000000000000010000000000 q
b01010 s
1t
1u
1v
b01010 y
1z
b00111 '"
b00111 5"
1?"
1P"
b00000000000000000000010000000000 R"
b00000000000000000000010000000000 W"
b00000000000000000000010000000000 Y"
#2500000
0!
01
0I
0P
0v
0?"
0P"
#3000000
1!
b00000000000000000000000000000000 #
11
b00000000000000000000000000000000 3
1@
1I
1L
b01 O
1P
1Z
1v
1x
1?"
1P"
b00000000000000000000000000000000 R"
#3500000
0!
01
0I
0P
0v
0?"
0P"
#4000000
1!
11
0@
1A
1I
0L
1M
b10 O
1P
0Z
1[
b01010 h
1i
b01010 j
b01010 k
b00011 l
b10 p
1v
0x
b01010 {
1|
b01010 }
b01010 ""
b01010 #"
b01010 %"
b01010 &"
b00011 ("
b01010 )"
1*"
b01010 ."
1/"
b01010 3"
14"
b01010 8"
b01010 9"
b00011 :"
b10 >"
1?"
b01010 A"
1B"
b10 C"
1D"
b01010 J"
1K"
1P"
#4500000
0!
b01010 -
1.
1/
01
b01010 =
1>
1?
0I
0P
b01010 _
1`
1a
0v
0?"
b01010 G"
1H"
1I"
0P"
#5000000
1!
b00000000000000100000000000000010 #
b00001 %
b01111 &
b11111 '
11
b00000000000000100000000000000010 3
b00001 5
b01111 6
b11111 7
0A
1B
1D
b00000000000000000000010000000000 E
b00000000000000100000010000000010 G
1I
0M
1N
b00 O
1P
b00000000000000100000010000000010 R
b00001 T
b01111 U
b11111 V
0[
1\
1b
b00000000000000000000010000000000 c
1e
b00001 f
b01001 j
b00101 k
b10101 l
b01 p
b00000000000000100000010000000010 q
b00001 s
1t
1u
1v
b00001 y
b00001 !"
b01001 ""
b01111 $"
b00101 %"
b11111 '"
b10101 ("
b00001 +"
b01111 0"
b11111 5"
b01001 8"
b00101 9"
b10101 :"
b01 >"
1?"
b01 C"
0D"
1L"
1M"
b00000000000000000000010000000000 N"
1P"
b00000000000000100000000000000010 R"
1T"
b00000000000000000000010000000000 U"
b00000000000000100000010000000010 W"
b00000000000000100000010000000010 Y"
#5500000
0!
b00000 -
0/
01
b00000 =
0?
0I
0P
b00000 _
0a
0v
0?"
b00000 G"
0I"
0P"
#6000000
1!
b00000000000000000000000000000000 #
11
b00000000000000000000000000000000 3
1@
0B
0D
b00000000000000100000000000000010 G
1I
1L
0N
b01 O
1P
b00000000000000100000000000000010 R
1Z
0\
0b
1e
b00000000000000100000000000000010 q
b00001 s
1t
1u
1v
1x
1?"
0L"
0M"
1P"
b00000000000000000000000000000000 R"
0T"
b00000000000000100000000000000010 W"
b00000000000000100000000000000010 Y"
#6500000
0!
01
0I
0P
0v
0?"
0P"
#7000000
1!
11
0@
1A
1I
0L
1M
b10 O
1P
0Z
1[
b00001 h
b00000 j
b01110 k
b11110 l
b00 p
1v
0x
b00001 {
b00001 }
b00000 ""
b00001 #"
b01110 %"
b00001 &"
b11110 ("
b00001 )"
b00001 ."
b00001 3"
b00000 8"
b01110 9"
b11110 :"
b00 >"
1?"
b00001 A"
b00 C"
1D"
b00001 J"
1P"
#7500000
0!
b00001 +
1/
01
b00001 ;
1?
0I
0P
b00001 ]
1a
0v
0?"
b00001 E"
1I"
0P"
#8000000
1!
11
0A
1B
1D
b00000000000000000000000000000010 E
1I
0M
1N
b00 O
1P
0[
1\
1b
b00000000000000000000000000000010 c
1v
1?"
0D"
1L"
1M"
b00000000000000000000000000000010 N"
1P"
1T"
b00000000000000000000000000000010 U"
#8500000
0!
b00000 +
0/
01
b00000 ;
0?
0I
0P
b00000 ]
0a
0v
0?"
b00000 E"
0I"
0P"
#9000000
1!
11
1@
0B
0D
b00000000000000100000000000000000 G
1I
1L
0N
b01 O
1P
b00000000000000100000000000000000 R
1Z
0\
0b
1e
b10001 f
b00000000000000100000000000000000 q
b10001 s
1t
1u
1v
1x
b10001 y
1?"
0L"
0M"
1P"
0T"
b00000000000000100000000000000000 W"
b00000000000000100000000000000000 Y"
#9500000
0!
01
0I
0P
0v
0?"
0P"
#10000000
1!
b00000100000000000000000000000000 #
b00000000000000000000001000000000 $
b01010 %
b00000 &
11
b00000100000000000000000000000000 3
b00000000000000000000001000000000 4
b01010 5
b00000 6
0@
1A
b00000100000000100000000000000000 G
b00000000000000000000001000000000 H
1I
0L
1M
b10 O
1P
b00000100000000100000000000000000 R
b00000000000000000000001000000000 S
b01010 T
b00000 U
0Z
1[
1e
b01001 f
0g
b10001 h
b00111 j
b10001 k
b01110 l
b00 p
b00000100000000100000000000000000 q
b00000000000000000000001000000000 r
b01001 s
0t
1u
1v
0x
b01001 y
0z
b10001 {
b10001 }
b01010 !"
b00111 ""
b10001 #"
b00000 $"
b10001 %"
b10001 &"
b01110 ("
b10001 )"
b01010 +"
b10001 ."
b00000 0"
b10001 3"
b00111 8"
b10001 9"
b01110 :"
b00 >"
1?"
b10001 A"
b00 C"
1D"
b10001 J"
1P"
b00000100000000000000000000000000 R"
b00000000000000000000001000000000 S"
b00000100000000100000000000000000 W"
b00000000000000000000001000000000 X"
b00000100000000100000000000000000 Y"
b00000000000000000000001000000000 Z"
#10500000
0!
b10001 +
1/
01
b10001 ;
1?
0I
0P
b10001 ]
1a
0v
0?"
b10001 E"
1I"
0P"
#11000000
1!
b00000000000000000000000000000000 #
11
b00000000000000000000000000000000 3
0A
1B
1D
b00000000000000100000000000000000 E
1I
0M
1N
b00 O
1P
0[
1\
1b
b00000000000000100000000000000000 c
1v
1?"
0D"
1L"
1M"
b00000000000000100000000000000000 N"
1P"
b00000000000000000000000000000000 R"
1T"
b00000000000000100000000000000000 U"
#11500000
0!
b00000 +
0/
01
b00000 ;
0?
0I
0P
b00000 ]
0a
0v
0?"
b00000 E"
0I"
0P"
#12000000
1!
11
1@
0B
0D
b00000100000000000000000000000000 G
1I
1L
0N
b01 O
1P
b00000100000000000000000000000000 R
1Z
0\
0b
1e
b11010 f
1g
b00000100000000000000000000000000 q
b11010 s
1t
1u
1v
1x
b11010 y
1z
1?"
0L"
0M"
1P"
0T"
b00000100000000000000000000000000 W"
b00000100000000000000000000000000 Y"
#12500000
0!
01
0I
0P
0v
0?"
0P"
#13000000
1!
11
0@
1A
1I
0L
1M
b10 O
1P
0Z
1[
b11010 h
b10000 j
b11010 k
b00101 l
b10 p
1v
0x
b11010 {
b11010 }
b10000 ""
b11010 #"
b11010 %"
b11010 &"
b00101 ("
b11010 )"
b11010 ."
b11010 3"
b10000 8"
b11010 9"
b00101 :"
b10 >"
1?"
b11010 A"
b10 C"
1D"
b11010 J"
1P"
#13500000
0!
b11010 -
1/
01
b11010 =
1?
0I
0P
b11010 _
1a
0v
0?"
b11010 G"
1I"
0P"
#14000000
1!
11
0A
1B
1D
b00000100000000000000000000000000 E
1I
0M
1N
b00 O
1P
0[
1\
1b
b00000100000000000000000000000000 c
1v
1?"
0D"
1L"
1M"
b00000100000000000000000000000000 N"
1P"
1T"
b00000100000000000000000000000000 U"
#14500000
0!
b00000 -
0/
01
b00000 =
0?
0I
0P
b00000 _
0a
0v
0?"
b00000 G"
0I"
0P"
#15000000
1!
11
1@
0B
0D
b00000000000000000000000000000000 G
1I
1L
0N
b01 O
1P
b00000000000000000000000000000000 R
1Z
0\
0b
1e
b01001 f
0g
b00000000000000000000000000000000 q
b01001 s
0t
1u
1v
1x
b01001 y
0z
1?"
0L"
0M"
1P"
0T"
b00000000000000000000000000000000 W"
b00000000000000000000000000000000 Y"
#15500000
0!
01
0I
0P
0v
0?"
0P"
#16000000
1!
11
0@
1A
1I
0L
1M
b10 O
1P
0Z
1[
b01001 h
0i
b00001 j
b01001 k
b10110 l
b00 p
1v
0x
b01001 {
0|
b01001 }
b00001 ""
b01001 #"
b01001 %"
b01001 &"
b10110 ("
b01001 )"
0*"
b01001 ."
0/"
b01001 3"
04"
b00001 8"
b01001 9"
b10110 :"
b00 >"
1?"
b01001 A"
0B"
b00 C"
1D"
b01001 J"
0K"
1P"
#16500000
0!
b01001 +
0.
1/
01
b01001 ;
0>
1?
0I
0P
b01001 ]
0`
1a
0v
0?"
b01001 E"
0H"
1I"
0P"
#17000000
1!
10
11
0A
1B
1D
b00000000000000000000000000000000 E
b00000000000000000000001000000000 F
1I
0M
1N
b00 O
1P
0[
1\
1b
b00000000000000000000000000000000 c
b00000000000000000000001000000000 d
1v
1?"
0D"
1L"
1M"
b00000000000000000000000000000000 N"
b00000000000000000000001000000000 O"
1P"
1T"
b00000000000000000000000000000000 U"
b00000000000000000000001000000000 V"
#17500000
0!
b00000 +
0/
01
b00000 ;
0?
0I
0P
b00000 ]
0a
0v
0?"
b00000 E"
0I"
0P"
